<svg xmlns="http://www.w3.org/2000/svg" width="35" height="47" viewBox="0 0 35 47">
    <path fill="#F00" fill-rule="nonzero" d="M17.501 0C5.833 0 0 8.813 0 17.625 0 26.438 17.501 47 17.501 47S35 26.437 35 17.625C35 8.812 29.167 0 17.501 0M17.5 23.5c-3.221 0-5.833-2.63-5.833-5.875 0-3.244 2.612-5.875 5.833-5.875s5.833 2.63 5.833 5.875c0 3.244-2.612 5.875-5.833 5.875"/>
</svg>
