<svg xmlns="http://www.w3.org/2000/svg" xmlns:xlink="http://www.w3.org/1999/xlink" width="22" height="15" viewBox="0 0 22 15">
    <defs>
        <path id="a" d="M21.944 7.04H0V.161h21.944V7.04z"/>
    </defs>
    <g fill="none" fill-rule="evenodd">
        <path fill="#363F45" d="M9.499 6.67c-.044-.591-.169-1.182-.54-1.659-.711-.914-1.915-1.125-2.998-1.138a6.09 6.09 0 0 0-.463.012c-1.288.083-2.52.656-2.96 1.947-.154.457-.097.889-.097.889h.15L9.5 6.67z"/>
        <path fill="#363F45" d="M19.12 0H2.824C1.174 0 0 1.338 0 3.03v5.159c.339-.918 1.354-1.265 1.354-1.265-.114-1.079.354-2.25 1.153-2.977 1.475-1.344 3.776-1.465 5.58-.78 1.456.554 2.528 1.905 2.522 3.5h.726c-.005-1.595 1.066-2.946 2.523-3.5 1.803-.685 4.104-.564 5.58.78.798.728 1.266 1.898 1.152 2.977 0 0 1.015.347 1.354 1.265v-5.16C21.944 1.338 20.771 0 19.12 0"/>
        <g transform="translate(0 7.622)">
            <mask id="b" fill="#fff">
                <use xlink:href="#a"/>
            </mask>
            <path fill="#363F45" d="M21.12.737c-.384-.344-.856-.506-1.355-.608l-.021-.004c-.715-.144-1.448-.126-2.173-.118-.713.007-1.427.004-2.14.004h-2.442L11.569 0h-1.193l-1.42.01H6.513C5.8.01 5.086.015 4.373.008 3.648-.001 2.915-.02 2.2.125L2.18.129C1.68.231 1.209.393.824.737.308 1.2 0 1.797 0 2.492v3.693c0 .383.312.694.697.694h1.684a.697.697 0 0 0 .699-.696c0-.172.14-.311.313-.311H18.55c.173 0 .313.14.313.311 0 .385.313.696.7.696h1.683c.385 0 .697-.31.697-.694V2.492c0-.696-.308-1.292-.824-1.755" mask="url(#b)"/>
        </g>
        <path fill="#363F45" d="M19.503 6.72s.058-.431-.098-.888c-.439-1.291-1.67-1.864-2.959-1.947a6.093 6.093 0 0 0-.463-.012c-1.083.013-2.287.224-2.998 1.138-.371.477-.496 1.068-.54 1.66l6.907.05h.151z"/>
    </g>
</svg>
